server {

    listen 80;
    server_name platform.net;
    charset utf-8;

    error_page  404 = /404.html;
    error_page  500 502 503 504 /50x.html;

    set $upstream pp-landing-site_server_1;

    location / {
        proxy_pass http://$upstream;
        proxy_set_header Host $host;
        proxy_set_header X-Real-IP $remote_addr;
        proxy_set_header X-Forwarded-For $proxy_add_x_forwarded_for;
    }

}